RAM.vcd
$date
     Jun 08, 2018       14:05:20
$end

$version
 SystemC 2.3.1-Accellera --- Jun  8 2018 13:26:01
$end

$timescale
     1 ps
$end

$scope module SystemC $end
$var wire    1  aaaaa  clk       $end
$var wire   32  aaaab  Output [31:0]  $end
$var wire    1  aaaac  chipselect       $end
$var wire    1  aaaad  write_enable       $end
$var wire    1  aaaae  read_enable       $end
$var wire   32  aaaaf  data_write [31:0]  $end
$var wire    4  aaaag   direccion [3:0]  $end
$upscope $end
$enddefinitions  $end

$comment
All initial values are dumped below at time 0 sec = 0 timescale units.
$end

$dumpvars
1aaaaa
b0 aaaab
0aaaac
0aaaad
0aaaae
b0 aaaaf
b0 aaaag
$end

#5000
0aaaaa

#10000
1aaaaa

#15000
0aaaaa

#20000
1aaaaa
1aaaac
1aaaad

#25000
0aaaaa

#30000
1aaaaa
b1 aaaaf
b1 aaaag

#35000
0aaaaa

#40000
1aaaaa
b10 aaaaf
b10 aaaag

#45000
0aaaaa

#50000
1aaaaa
b11 aaaaf
b11 aaaag

#55000
0aaaaa

#60000
1aaaaa
b100 aaaaf
b100 aaaag

#65000
0aaaaa

#70000
1aaaaa
b101 aaaaf
b101 aaaag

#75000
0aaaaa

#80000
1aaaaa
b110 aaaaf
b110 aaaag

#85000
0aaaaa

#90000
1aaaaa
b111 aaaaf
b111 aaaag

#95000
0aaaaa

#100000
1aaaaa
b1000 aaaaf
b1000 aaaag

#105000
0aaaaa

#110000
1aaaaa
b1001 aaaaf
b1001 aaaag

#115000
0aaaaa

#120000
1aaaaa
b1010 aaaaf
b1010 aaaag

#125000
0aaaaa

#130000
1aaaaa
b1011 aaaaf
b1011 aaaag

#135000
0aaaaa

#140000
1aaaaa
b1100 aaaaf
b1100 aaaag

#145000
0aaaaa

#150000
1aaaaa
b1101 aaaaf
b1101 aaaag

#155000
0aaaaa

#160000
1aaaaa
b1110 aaaaf
b1110 aaaag

#165000
0aaaaa

#170000
1aaaaa
b1111 aaaaf
b1111 aaaag

#175000
0aaaaa

#180000
1aaaaa
0aaaad
1aaaae
b0 aaaag

#185000
0aaaaa

#190000
1aaaaa
b1 aaaab
b1 aaaag

#195000
0aaaaa

#200000
1aaaaa
b10 aaaab
b10 aaaag

#205000
0aaaaa

#210000
1aaaaa
b11 aaaab
b11 aaaag

#215000
0aaaaa

#220000
1aaaaa
b100 aaaab
b100 aaaag

#225000
0aaaaa

#230000
1aaaaa
b101 aaaab
b101 aaaag

#235000
0aaaaa

#240000
1aaaaa
b110 aaaab
b110 aaaag

#245000
0aaaaa

#250000
1aaaaa
b111 aaaab
b111 aaaag

#255000
0aaaaa

#260000
1aaaaa
b1000 aaaab
b1000 aaaag

#265000
0aaaaa

#270000
1aaaaa
b1001 aaaab
b1001 aaaag

#275000
0aaaaa

#280000
1aaaaa
b1010 aaaab
b1010 aaaag

#285000
0aaaaa

#290000
1aaaaa
b1011 aaaab
b1011 aaaag

#295000
0aaaaa

#300000
1aaaaa
b1100 aaaab
b1100 aaaag

#305000
0aaaaa

#310000
1aaaaa
b1101 aaaab
b1101 aaaag

#315000
0aaaaa

#320000
1aaaaa
b1110 aaaab
b1110 aaaag

#325000
0aaaaa

#330000
1aaaaa
b1111 aaaab
b1111 aaaag

